%!PS-Adobe-2.0 EPSF-2.0
%%Title: /home/soderen/IPAC/pipeline.dia
%%Creator: Dia v0.97.3
%%CreationDate: Tue Apr 25 10:58:48 2017
%%For: soderen
%%Orientation: Portrait
%%Magnification: 1.0000
%%BoundingBox: 0 0 873 790
%%BeginSetup
%%EndSetup
%%EndComments
%%BeginProlog
[ /.notdef /.notdef /.notdef /.notdef /.notdef /.notdef /.notdef /.notdef /.notdef /.notdef
/.notdef /.notdef /.notdef /.notdef /.notdef /.notdef /.notdef /.notdef /.notdef /.notdef
/.notdef /.notdef /.notdef /.notdef /.notdef /.notdef /.notdef /.notdef /.notdef /.notdef
/.notdef /.notdef /space /exclam /quotedbl /numbersign /dollar /percent /ampersand /quoteright
/parenleft /parenright /asterisk /plus /comma /hyphen /period /slash /zero /one
/two /three /four /five /six /seven /eight /nine /colon /semicolon
/less /equal /greater /question /at /A /B /C /D /E
/F /G /H /I /J /K /L /M /N /O
/P /Q /R /S /T /U /V /W /X /Y
/Z /bracketleft /backslash /bracketright /asciicircum /underscore /quoteleft /a /b /c
/d /e /f /g /h /i /j /k /l /m
/n /o /p /q /r /s /t /u /v /w
/x /y /z /braceleft /bar /braceright /asciitilde /.notdef /.notdef /.notdef
/.notdef /.notdef /.notdef /.notdef /.notdef /.notdef /.notdef /.notdef /.notdef /.notdef
/.notdef /.notdef /.notdef /.notdef /.notdef /.notdef /.notdef /.notdef /.notdef /.notdef
/.notdef /.notdef /.notdef /.notdef /.notdef /.notdef /.notdef /.notdef /.notdef /.notdef
/space /exclamdown /cent /sterling /currency /yen /brokenbar /section /dieresis /copyright
/ordfeminine /guillemotleft /logicalnot /hyphen /registered /macron /degree /plusminus /twosuperior /threesuperior
/acute /mu /paragraph /periodcentered /cedilla /onesuperior /ordmasculine /guillemotright /onequarter /onehalf
/threequarters /questiondown /Agrave /Aacute /Acircumflex /Atilde /Adieresis /Aring /AE /Ccedilla
/Egrave /Eacute /Ecircumflex /Edieresis /Igrave /Iacute /Icircumflex /Idieresis /Eth /Ntilde
/Ograve /Oacute /Ocircumflex /Otilde /Odieresis /multiply /Oslash /Ugrave /Uacute /Ucircumflex
/Udieresis /Yacute /Thorn /germandbls /agrave /aacute /acircumflex /atilde /adieresis /aring
/ae /ccedilla /egrave /eacute /ecircumflex /edieresis /igrave /iacute /icircumflex /idieresis
/eth /ntilde /ograve /oacute /ocircumflex /otilde /odieresis /divide /oslash /ugrave
/uacute /ucircumflex /udieresis /yacute /thorn /ydieresis] /isolatin1encoding exch def
/cp {closepath} bind def
/c {curveto} bind def
/f {fill} bind def
/a {arc} bind def
/ef {eofill} bind def
/ex {exch} bind def
/gr {grestore} bind def
/gs {gsave} bind def
/sa {save} bind def
/rs {restore} bind def
/l {lineto} bind def
/m {moveto} bind def
/rm {rmoveto} bind def
/n {newpath} bind def
/s {stroke} bind def
/sh {show} bind def
/slc {setlinecap} bind def
/slj {setlinejoin} bind def
/slw {setlinewidth} bind def
/srgb {setrgbcolor} bind def
/rot {rotate} bind def
/sc {scale} bind def
/sd {setdash} bind def
/ff {findfont} bind def
/sf {setfont} bind def
/scf {scalefont} bind def
/sw {stringwidth pop} bind def
/tr {translate} bind def

/ellipsedict 8 dict def
ellipsedict /mtrx matrix put
/ellipse
{ ellipsedict begin
   /endangle exch def
   /startangle exch def
   /yrad exch def
   /xrad exch def
   /y exch def
   /x exch def   /savematrix mtrx currentmatrix def
   x y tr xrad yrad sc
   0 0 1 startangle endangle arc
   savematrix setmatrix
   end
} def

/mergeprocs {
dup length
3 -1 roll
dup
length
dup
5 1 roll
3 -1 roll
add
array cvx
dup
3 -1 roll
0 exch
putinterval
dup
4 2 roll
putinterval
} bind def
/Times-Roman-latin1
    /Times-Roman findfont
    dup length dict begin
	{1 index /FID ne {def} {pop pop} ifelse} forall
	/Encoding isolatin1encoding def
    currentdict end
definefont pop
/Times-Italic-latin1
    /Times-Italic findfont
    dup length dict begin
	{1 index /FID ne {def} {pop pop} ifelse} forall
	/Encoding isolatin1encoding def
    currentdict end
definefont pop
/Times-Bold-latin1
    /Times-Bold findfont
    dup length dict begin
	{1 index /FID ne {def} {pop pop} ifelse} forall
	/Encoding isolatin1encoding def
    currentdict end
definefont pop
/Times-BoldItalic-latin1
    /Times-BoldItalic findfont
    dup length dict begin
	{1 index /FID ne {def} {pop pop} ifelse} forall
	/Encoding isolatin1encoding def
    currentdict end
definefont pop
/AvantGarde-Gothic-latin1
    /AvantGarde-Gothic findfont
    dup length dict begin
	{1 index /FID ne {def} {pop pop} ifelse} forall
	/Encoding isolatin1encoding def
    currentdict end
definefont pop
/AvantGarde-BookOblique-latin1
    /AvantGarde-BookOblique findfont
    dup length dict begin
	{1 index /FID ne {def} {pop pop} ifelse} forall
	/Encoding isolatin1encoding def
    currentdict end
definefont pop
/AvantGarde-Demi-latin1
    /AvantGarde-Demi findfont
    dup length dict begin
	{1 index /FID ne {def} {pop pop} ifelse} forall
	/Encoding isolatin1encoding def
    currentdict end
definefont pop
/AvantGarde-DemiOblique-latin1
    /AvantGarde-DemiOblique findfont
    dup length dict begin
	{1 index /FID ne {def} {pop pop} ifelse} forall
	/Encoding isolatin1encoding def
    currentdict end
definefont pop
/Bookman-Light-latin1
    /Bookman-Light findfont
    dup length dict begin
	{1 index /FID ne {def} {pop pop} ifelse} forall
	/Encoding isolatin1encoding def
    currentdict end
definefont pop
/Bookman-LightItalic-latin1
    /Bookman-LightItalic findfont
    dup length dict begin
	{1 index /FID ne {def} {pop pop} ifelse} forall
	/Encoding isolatin1encoding def
    currentdict end
definefont pop
/Bookman-Demi-latin1
    /Bookman-Demi findfont
    dup length dict begin
	{1 index /FID ne {def} {pop pop} ifelse} forall
	/Encoding isolatin1encoding def
    currentdict end
definefont pop
/Bookman-DemiItalic-latin1
    /Bookman-DemiItalic findfont
    dup length dict begin
	{1 index /FID ne {def} {pop pop} ifelse} forall
	/Encoding isolatin1encoding def
    currentdict end
definefont pop
/Courier-latin1
    /Courier findfont
    dup length dict begin
	{1 index /FID ne {def} {pop pop} ifelse} forall
	/Encoding isolatin1encoding def
    currentdict end
definefont pop
/Courier-Oblique-latin1
    /Courier-Oblique findfont
    dup length dict begin
	{1 index /FID ne {def} {pop pop} ifelse} forall
	/Encoding isolatin1encoding def
    currentdict end
definefont pop
/Courier-Bold-latin1
    /Courier-Bold findfont
    dup length dict begin
	{1 index /FID ne {def} {pop pop} ifelse} forall
	/Encoding isolatin1encoding def
    currentdict end
definefont pop
/Courier-BoldOblique-latin1
    /Courier-BoldOblique findfont
    dup length dict begin
	{1 index /FID ne {def} {pop pop} ifelse} forall
	/Encoding isolatin1encoding def
    currentdict end
definefont pop
/Helvetica-latin1
    /Helvetica findfont
    dup length dict begin
	{1 index /FID ne {def} {pop pop} ifelse} forall
	/Encoding isolatin1encoding def
    currentdict end
definefont pop
/Helvetica-Oblique-latin1
    /Helvetica-Oblique findfont
    dup length dict begin
	{1 index /FID ne {def} {pop pop} ifelse} forall
	/Encoding isolatin1encoding def
    currentdict end
definefont pop
/Helvetica-Bold-latin1
    /Helvetica-Bold findfont
    dup length dict begin
	{1 index /FID ne {def} {pop pop} ifelse} forall
	/Encoding isolatin1encoding def
    currentdict end
definefont pop
/Helvetica-BoldOblique-latin1
    /Helvetica-BoldOblique findfont
    dup length dict begin
	{1 index /FID ne {def} {pop pop} ifelse} forall
	/Encoding isolatin1encoding def
    currentdict end
definefont pop
/Helvetica-Narrow-latin1
    /Helvetica-Narrow findfont
    dup length dict begin
	{1 index /FID ne {def} {pop pop} ifelse} forall
	/Encoding isolatin1encoding def
    currentdict end
definefont pop
/Helvetica-Narrow-Oblique-latin1
    /Helvetica-Narrow-Oblique findfont
    dup length dict begin
	{1 index /FID ne {def} {pop pop} ifelse} forall
	/Encoding isolatin1encoding def
    currentdict end
definefont pop
/Helvetica-Narrow-Bold-latin1
    /Helvetica-Narrow-Bold findfont
    dup length dict begin
	{1 index /FID ne {def} {pop pop} ifelse} forall
	/Encoding isolatin1encoding def
    currentdict end
definefont pop
/Helvetica-Narrow-BoldOblique-latin1
    /Helvetica-Narrow-BoldOblique findfont
    dup length dict begin
	{1 index /FID ne {def} {pop pop} ifelse} forall
	/Encoding isolatin1encoding def
    currentdict end
definefont pop
/NewCenturySchlbk-Roman-latin1
    /NewCenturySchlbk-Roman findfont
    dup length dict begin
	{1 index /FID ne {def} {pop pop} ifelse} forall
	/Encoding isolatin1encoding def
    currentdict end
definefont pop
/NewCenturySchlbk-Italic-latin1
    /NewCenturySchlbk-Italic findfont
    dup length dict begin
	{1 index /FID ne {def} {pop pop} ifelse} forall
	/Encoding isolatin1encoding def
    currentdict end
definefont pop
/NewCenturySchlbk-Bold-latin1
    /NewCenturySchlbk-Bold findfont
    dup length dict begin
	{1 index /FID ne {def} {pop pop} ifelse} forall
	/Encoding isolatin1encoding def
    currentdict end
definefont pop
/NewCenturySchlbk-BoldItalic-latin1
    /NewCenturySchlbk-BoldItalic findfont
    dup length dict begin
	{1 index /FID ne {def} {pop pop} ifelse} forall
	/Encoding isolatin1encoding def
    currentdict end
definefont pop
/Palatino-Roman-latin1
    /Palatino-Roman findfont
    dup length dict begin
	{1 index /FID ne {def} {pop pop} ifelse} forall
	/Encoding isolatin1encoding def
    currentdict end
definefont pop
/Palatino-Italic-latin1
    /Palatino-Italic findfont
    dup length dict begin
	{1 index /FID ne {def} {pop pop} ifelse} forall
	/Encoding isolatin1encoding def
    currentdict end
definefont pop
/Palatino-Bold-latin1
    /Palatino-Bold findfont
    dup length dict begin
	{1 index /FID ne {def} {pop pop} ifelse} forall
	/Encoding isolatin1encoding def
    currentdict end
definefont pop
/Palatino-BoldItalic-latin1
    /Palatino-BoldItalic findfont
    dup length dict begin
	{1 index /FID ne {def} {pop pop} ifelse} forall
	/Encoding isolatin1encoding def
    currentdict end
definefont pop
/Symbol-latin1
    /Symbol findfont
definefont pop
/ZapfChancery-MediumItalic-latin1
    /ZapfChancery-MediumItalic findfont
    dup length dict begin
	{1 index /FID ne {def} {pop pop} ifelse} forall
	/Encoding isolatin1encoding def
    currentdict end
definefont pop
/ZapfDingbats-latin1
    /ZapfDingbats findfont
    dup length dict begin
	{1 index /FID ne {def} {pop pop} ifelse} forall
	/Encoding isolatin1encoding def
    currentdict end
definefont pop
28.346000 -28.346000 scale
-1.075000 -28.825000 translate
%%EndProlog


0.050000 slw
[] 0 sd
[] 0 sd
0 slc
0 slj
0.050000 slw
0 slc
0 slj
[] 0 sd
1.000000 1.000000 1.000000 srgb
n 3.433333 1.000000 m 12.366667 1.000000 l 13.600103 1.000000 14.600000 1.311286 14.600000 1.695278 c 14.600000 2.079269 13.600103 2.390556 12.366667 2.390556 c 3.433333 2.390556 l 2.199897 2.390556 1.200000 2.079269 1.200000 1.695278 c 1.200000 1.311286 2.199897 1.000000 3.433333 1.000000 c ef
0.000000 0.000000 0.000000 srgb
n 3.433333 1.000000 m 12.366667 1.000000 l 13.600103 1.000000 14.600000 1.311286 14.600000 1.695278 c 14.600000 2.079269 13.600103 2.390556 12.366667 2.390556 c 3.433333 2.390556 l 2.199897 2.390556 1.200000 2.079269 1.200000 1.695278 c 1.200000 1.311286 2.199897 1.000000 3.433333 1.000000 c s
/Helvetica-latin1 ff 0.938389 scf sf
(input data) dup sw 2 div 7.900000 ex sub 1.762306 m
 gs 1 -1 sc sh gr
1.000000 1.000000 1.000000 srgb
n 15.400000 2.000000 m 15.400000 4.390556 l 29.600000 4.390556 l 29.600000 2.000000 l f
0.050000 slw
[] 0 sd
[] 0 sd
0 slj
0.000000 0.000000 0.000000 srgb
n 15.400000 2.000000 m 15.400000 4.390556 l 29.600000 4.390556 l 29.600000 2.000000 l cp s
/Helvetica-latin1 ff 0.938389 scf sf
(Conversion and splice) dup sw 2 div 22.500000 ex sub 3.251889 m
 gs 1 -1 sc sh gr
0.050000 slw
[] 0 sd
[] 0 sd
0 slc
0 slj
0.050000 slw
0 slc
0 slj
[] 0 sd
1.000000 1.000000 1.000000 srgb
n 3.433333 4.000000 m 12.366667 4.000000 l 13.600103 4.000000 14.600000 4.356058 14.600000 4.795278 c 14.600000 5.234498 13.600103 5.590556 12.366667 5.590556 c 3.433333 5.590556 l 2.199897 5.590556 1.200000 5.234498 1.200000 4.795278 c 1.200000 4.356058 2.199897 4.000000 3.433333 4.000000 c ef
0.000000 0.000000 0.000000 srgb
n 3.433333 4.000000 m 12.366667 4.000000 l 13.600103 4.000000 14.600000 4.356058 14.600000 4.795278 c 14.600000 5.234498 13.600103 5.590556 12.366667 5.590556 c 3.433333 5.590556 l 2.199897 5.590556 1.200000 5.234498 1.200000 4.795278 c 1.200000 4.356058 2.199897 4.000000 3.433333 4.000000 c s
/Helvetica-latin1 ff 0.938389 scf sf
(float 1x3564) dup sw 2 div 7.900000 ex sub 4.862306 m
 gs 1 -1 sc sh gr
1.000000 1.000000 1.000000 srgb
n 15.400000 5.200000 m 15.400000 7.590556 l 29.600000 7.590556 l 29.600000 5.200000 l f
0.050000 slw
[] 0 sd
[] 0 sd
0 slj
0.000000 0.000000 0.000000 srgb
n 15.400000 5.200000 m 15.400000 7.590556 l 29.600000 7.590556 l 29.600000 5.200000 l cp s
/Helvetica-latin1 ff 0.938389 scf sf
(Notch y[n]=x[n]-x[n-1]) dup sw 2 div 22.500000 ex sub 6.451889 m
 gs 1 -1 sc sh gr
0.050000 slw
[] 0 sd
[] 0 sd
0 slc
0 slj
0.050000 slw
0 slc
0 slj
[] 0 sd
1.000000 1.000000 1.000000 srgb
n 3.350000 7.200000 m 12.350000 7.200000 l 13.592641 7.200000 14.600000 7.556058 14.600000 7.995278 c 14.600000 8.434498 13.592641 8.790556 12.350000 8.790556 c 3.350000 8.790556 l 2.107359 8.790556 1.100000 8.434498 1.100000 7.995278 c 1.100000 7.556058 2.107359 7.200000 3.350000 7.200000 c ef
0.000000 0.000000 0.000000 srgb
n 3.350000 7.200000 m 12.350000 7.200000 l 13.592641 7.200000 14.600000 7.556058 14.600000 7.995278 c 14.600000 8.434498 13.592641 8.790556 12.350000 8.790556 c 3.350000 8.790556 l 2.107359 8.790556 1.100000 8.434498 1.100000 7.995278 c 1.100000 7.556058 2.107359 7.200000 3.350000 7.200000 c s
/Helvetica-latin1 ff 0.938389 scf sf
(normalized data) dup sw 2 div 7.850000 ex sub 8.062306 m
 gs 1 -1 sc sh gr
1.000000 1.000000 1.000000 srgb
n 15.400000 8.400000 m 15.400000 10.790556 l 29.600000 10.790556 l 29.600000 8.400000 l f
0.050000 slw
[] 0 sd
[] 0 sd
0 slj
0.000000 0.000000 0.000000 srgb
n 15.400000 8.400000 m 15.400000 10.790556 l 29.600000 10.790556 l 29.600000 8.400000 l cp s
/Helvetica-latin1 ff 0.938389 scf sf
(I[y] and Q[y]) dup sw 2 div 22.500000 ex sub 9.651889 m
 gs 1 -1 sc sh gr
0.050000 slw
[] 0 sd
[] 0 sd
0 slc
0 slj
0.050000 slw
0 slc
0 slj
[] 0 sd
1.000000 1.000000 1.000000 srgb
n 3.433333 10.400000 m 12.366667 10.400000 l 13.600103 10.400000 14.600000 10.756058 14.600000 11.195278 c 14.600000 11.634498 13.600103 11.990556 12.366667 11.990556 c 3.433333 11.990556 l 2.199897 11.990556 1.200000 11.634498 1.200000 11.195278 c 1.200000 10.756058 2.199897 10.400000 3.433333 10.400000 c ef
0.000000 0.000000 0.000000 srgb
n 3.433333 10.400000 m 12.366667 10.400000 l 13.600103 10.400000 14.600000 10.756058 14.600000 11.195278 c 14.600000 11.634498 13.600103 11.990556 12.366667 11.990556 c 3.433333 11.990556 l 2.199897 11.990556 1.200000 11.634498 1.200000 11.195278 c 1.200000 10.756058 2.199897 10.400000 3.433333 10.400000 c s
/Helvetica-latin1 ff 0.938389 scf sf
(I and Q data) dup sw 2 div 7.900000 ex sub 11.262306 m
 gs 1 -1 sc sh gr
1.000000 1.000000 1.000000 srgb
n 15.400000 11.600000 m 15.400000 13.990556 l 29.600000 13.990556 l 29.600000 11.600000 l f
0.050000 slw
[] 0 sd
[] 0 sd
0 slj
0.000000 0.000000 0.000000 srgb
n 15.400000 11.600000 m 15.400000 13.990556 l 29.600000 13.990556 l 29.600000 11.600000 l cp s
/Helvetica-latin1 ff 0.938389 scf sf
(Amplitude from I and Q) dup sw 2 div 22.500000 ex sub 12.851889 m
 gs 1 -1 sc sh gr
0.050000 slw
[] 0 sd
[] 0 sd
0 slc
0 slj
0.050000 slw
0 slc
0 slj
[] 0 sd
1.000000 1.000000 1.000000 srgb
n 3.350000 13.600000 m 12.350000 13.600000 l 13.592641 13.600000 14.600000 13.956058 14.600000 14.395278 c 14.600000 14.834498 13.592641 15.190556 12.350000 15.190556 c 3.350000 15.190556 l 2.107359 15.190556 1.100000 14.834498 1.100000 14.395278 c 1.100000 13.956058 2.107359 13.600000 3.350000 13.600000 c ef
0.000000 0.000000 0.000000 srgb
n 3.350000 13.600000 m 12.350000 13.600000 l 13.592641 13.600000 14.600000 13.956058 14.600000 14.395278 c 14.600000 14.834498 13.592641 15.190556 12.350000 15.190556 c 3.350000 15.190556 l 2.107359 15.190556 1.100000 14.834498 1.100000 14.395278 c 1.100000 13.956058 2.107359 13.600000 3.350000 13.600000 c s
/Helvetica-latin1 ff 0.938389 scf sf
(analytic signal) dup sw 2 div 7.850000 ex sub 14.462306 m
 gs 1 -1 sc sh gr
1.000000 1.000000 1.000000 srgb
n 15.400000 14.800000 m 15.400000 17.190556 l 29.580000 17.190556 l 29.580000 14.800000 l f
0.050000 slw
[] 0 sd
[] 0 sd
0 slj
0.000000 0.000000 0.000000 srgb
n 15.400000 14.800000 m 15.400000 17.190556 l 29.580000 17.190556 l 29.580000 14.800000 l cp s
/Helvetica-latin1 ff 0.938389 scf sf
(moving average window) dup sw 2 div 22.490000 ex sub 16.051889 m
 gs 1 -1 sc sh gr
0.050000 slw
[] 0 sd
[] 0 sd
0 slc
0 slj
0.050000 slw
0 slc
0 slj
[] 0 sd
1.000000 1.000000 1.000000 srgb
n 3.350000 16.800000 m 12.350000 16.800000 l 13.592641 16.800000 14.600000 17.156058 14.600000 17.595278 c 14.600000 18.034498 13.592641 18.390556 12.350000 18.390556 c 3.350000 18.390556 l 2.107359 18.390556 1.100000 18.034498 1.100000 17.595278 c 1.100000 17.156058 2.107359 16.800000 3.350000 16.800000 c ef
0.000000 0.000000 0.000000 srgb
n 3.350000 16.800000 m 12.350000 16.800000 l 13.592641 16.800000 14.600000 17.156058 14.600000 17.595278 c 14.600000 18.034498 13.592641 18.390556 12.350000 18.390556 c 3.350000 18.390556 l 2.107359 18.390556 1.100000 18.034498 1.100000 17.595278 c 1.100000 17.156058 2.107359 16.800000 3.350000 16.800000 c s
/Helvetica-latin1 ff 0.938389 scf sf
(moving average) dup sw 2 div 7.850000 ex sub 17.662306 m
 gs 1 -1 sc sh gr
1.000000 1.000000 1.000000 srgb
n 15.400000 18.000000 m 15.400000 20.390556 l 29.580000 20.390556 l 29.580000 18.000000 l f
0.050000 slw
[] 0 sd
[] 0 sd
0 slj
0.000000 0.000000 0.000000 srgb
n 15.400000 18.000000 m 15.400000 20.390556 l 29.580000 20.390556 l 29.580000 18.000000 l cp s
/Helvetica-latin1 ff 0.938389 scf sf
(moving average window) dup sw 2 div 22.490000 ex sub 19.251889 m
 gs 1 -1 sc sh gr
0.050000 slw
[] 0 sd
[] 0 sd
0 slc
0 slj
0.050000 slw
0 slc
0 slj
[] 0 sd
1.000000 1.000000 1.000000 srgb
n 3.350000 20.000000 m 12.350000 20.000000 l 13.592641 20.000000 14.600000 20.356058 14.600000 20.795278 c 14.600000 21.234498 13.592641 21.590556 12.350000 21.590556 c 3.350000 21.590556 l 2.107359 21.590556 1.100000 21.234498 1.100000 20.795278 c 1.100000 20.356058 2.107359 20.000000 3.350000 20.000000 c ef
0.000000 0.000000 0.000000 srgb
n 3.350000 20.000000 m 12.350000 20.000000 l 13.592641 20.000000 14.600000 20.356058 14.600000 20.795278 c 14.600000 21.234498 13.592641 21.590556 12.350000 21.590556 c 3.350000 21.590556 l 2.107359 21.590556 1.100000 21.234498 1.100000 20.795278 c 1.100000 20.356058 2.107359 20.000000 3.350000 20.000000 c s
/Helvetica-latin1 ff 0.938389 scf sf
(moving average) dup sw 2 div 7.850000 ex sub 20.862306 m
 gs 1 -1 sc sh gr
1.000000 1.000000 1.000000 srgb
n 15.400000 21.200000 m 15.400000 23.590556 l 29.580000 23.590556 l 29.580000 21.200000 l f
0.050000 slw
[] 0 sd
[] 0 sd
0 slj
0.000000 0.000000 0.000000 srgb
n 15.400000 21.200000 m 15.400000 23.590556 l 29.580000 23.590556 l 29.580000 21.200000 l cp s
/Helvetica-latin1 ff 0.938389 scf sf
(moving average window) dup sw 2 div 22.490000 ex sub 22.451889 m
 gs 1 -1 sc sh gr
0.100000 slw
[] 0 sd
[] 0 sd
0 slc
n 13.631641 2.284145 m 14.892186 2.413653 l s
[] 0 sd
0 slj
0 slc
n 15.265222 2.451979 m 14.742290 2.649569 l 14.892186 2.413653 l 14.793391 2.152187 l ef
n 15.265222 2.451979 m 14.742290 2.649569 l 14.892186 2.413653 l 14.793391 2.152187 l cp s
0.100000 slw
[] 0 sd
[] 0 sd
0 slc
n 15.376440 3.975942 m 14.251887 4.099181 l s
[] 0 sd
0 slj
0 slc
n 13.879119 4.140032 m 14.348909 3.837051 l 14.251887 4.099181 l 14.403378 4.334076 l ef
n 13.879119 4.140032 m 14.348909 3.837051 l 14.251887 4.099181 l 14.403378 4.334076 l cp s
0.100000 slw
[] 0 sd
[] 0 sd
0 slc
n 13.767981 5.438344 m 14.892534 5.561583 l s
[] 0 sd
0 slj
0 slc
n 15.265302 5.602434 m 14.741044 5.796478 l 14.892534 5.561583 l 14.795512 5.299454 l ef
n 15.265302 5.602434 m 14.741044 5.796478 l 14.892534 5.561583 l 14.795512 5.299454 l cp s
0.100000 slw
[] 0 sd
[] 0 sd
0 slc
n 15.374846 7.173452 m 14.237203 7.297699 l s
[] 0 sd
0 slj
0 slc
n 13.864420 7.338413 m 14.334322 7.035606 l 14.237203 7.297699 l 14.388607 7.532650 l ef
n 13.864420 7.338413 m 14.334322 7.035606 l 14.237203 7.297699 l 14.388607 7.532650 l cp s
0.100000 slw
[] 0 sd
[] 0 sd
0 slc
n 13.753278 8.640004 m 14.890920 8.764252 l s
[] 0 sd
0 slj
0 slc
n 15.263703 8.804965 m 14.739517 8.999203 l 14.890920 8.764252 l 14.793801 8.502159 l ef
n 15.263703 8.804965 m 14.739517 8.999203 l 14.890920 8.764252 l 14.793801 8.502159 l cp s
0.100000 slw
[] 0 sd
[] 0 sd
0 slc
n 15.376440 10.375942 m 14.251887 10.499181 l s
[] 0 sd
0 slj
0 slc
n 13.879119 10.540032 m 14.348909 10.237051 l 14.251887 10.499181 l 14.403378 10.734076 l ef
n 13.879119 10.540032 m 14.348909 10.237051 l 14.251887 10.499181 l 14.403378 10.734076 l cp s
0.100000 slw
[] 0 sd
[] 0 sd
0 slc
n 13.767981 11.838344 m 14.892534 11.961583 l s
[] 0 sd
0 slj
0 slc
n 15.265302 12.002434 m 14.741044 12.196478 l 14.892534 11.961583 l 14.795512 11.699454 l ef
n 15.265302 12.002434 m 14.741044 12.196478 l 14.892534 11.961583 l 14.795512 11.699454 l cp s
0.100000 slw
[] 0 sd
[] 0 sd
0 slc
n 15.374846 13.573452 m 14.237203 13.697699 l s
[] 0 sd
0 slj
0 slc
n 13.864420 13.738413 m 14.334322 13.435606 l 14.237203 13.697699 l 14.388607 13.932650 l ef
n 13.864420 13.738413 m 14.334322 13.435606 l 14.237203 13.697699 l 14.388607 13.932650 l cp s
0.100000 slw
[] 0 sd
[] 0 sd
0 slc
n 13.747461 15.039809 m 14.891149 15.164802 l s
[] 0 sd
0 slj
0 slc
n 15.263929 15.205543 m 14.739728 15.399742 l 14.891149 15.164802 l 14.794049 14.902702 l ef
n 15.263929 15.205543 m 14.739728 15.399742 l 14.891149 15.164802 l 14.794049 14.902702 l cp s
0.100000 slw
[] 0 sd
[] 0 sd
0 slc
n 15.375071 16.772866 m 14.231383 16.897859 l s
[] 0 sd
0 slj
0 slc
n 13.858603 16.938600 m 14.328482 16.635758 l 14.231383 16.897859 l 14.382804 17.132799 l ef
n 13.858603 16.938600 m 14.328482 16.635758 l 14.231383 16.897859 l 14.382804 17.132799 l cp s
0.100000 slw
[] 0 sd
[] 0 sd
0 slc
n 13.747461 18.239809 m 14.891149 18.364802 l s
[] 0 sd
0 slj
0 slc
n 15.263929 18.405543 m 14.739728 18.599742 l 14.891149 18.364802 l 14.794049 18.102702 l ef
n 15.263929 18.405543 m 14.739728 18.599742 l 14.891149 18.364802 l 14.794049 18.102702 l cp s
0.100000 slw
[] 0 sd
[] 0 sd
0 slc
n 15.375071 19.972866 m 14.231383 20.097859 l s
[] 0 sd
0 slj
0 slc
n 13.858603 20.138600 m 14.328482 19.835758 l 14.231383 20.097859 l 14.382804 20.332799 l ef
n 13.858603 20.138600 m 14.328482 19.835758 l 14.231383 20.097859 l 14.382804 20.332799 l cp s
0.100000 slw
[] 0 sd
[] 0 sd
0 slc
n 13.747461 21.439809 m 14.891149 21.564802 l s
[] 0 sd
0 slj
0 slc
n 15.263929 21.605543 m 14.739728 21.799742 l 14.891149 21.564802 l 14.794049 21.302702 l ef
n 15.263929 21.605543 m 14.739728 21.799742 l 14.891149 21.564802 l 14.794049 21.302702 l cp s
0.050000 slw
[] 0 sd
[] 0 sd
0 slc
0 slj
0.050000 slw
0 slc
0 slj
[] 0 sd
1.000000 1.000000 1.000000 srgb
n 17.173750 26.000000 m 27.868750 26.000000 l 29.345422 26.000000 30.542500 26.559644 30.542500 27.250000 c 30.542500 27.940356 29.345422 28.500000 27.868750 28.500000 c 17.173750 28.500000 l 15.697078 28.500000 14.500000 27.940356 14.500000 27.250000 c 14.500000 26.559644 15.697078 26.000000 17.173750 26.000000 c ef
0.000000 0.000000 0.000000 srgb
n 17.173750 26.000000 m 27.868750 26.000000 l 29.345422 26.000000 30.542500 26.559644 30.542500 27.250000 c 30.542500 27.940356 29.345422 28.500000 27.868750 28.500000 c 17.173750 28.500000 l 15.697078 28.500000 14.500000 27.940356 14.500000 27.250000 c 14.500000 26.559644 15.697078 26.000000 17.173750 26.000000 c s
/Helvetica-latin1 ff 0.938389 scf sf
(instability detection) dup sw 2 div 22.521250 ex sub 27.317028 m
 gs 1 -1 sc sh gr
1.000000 1.000000 1.000000 srgb
n 3.600000 25.800000 m 3.600000 28.800000 l 11.592500 28.800000 l 11.592500 25.800000 l f
0.050000 slw
[] 0 sd
[] 0 sd
0 slj
0.000000 0.000000 0.000000 srgb
n 3.600000 25.800000 m 3.600000 28.800000 l 11.592500 28.800000 l 11.592500 25.800000 l cp s
/Helvetica-latin1 ff 0.938389 scf sf
(LIST network) dup sw 2 div 7.596250 ex sub 27.356611 m
 gs 1 -1 sc sh gr
0.100000 slw
[] 0 sd
[] 0 sd
0 slc
n 14.478931 27.276942 m 12.104438 27.284897 l s
[] 0 sd
0 slj
0 slc
n 11.729440 27.286153 m 12.228600 27.034480 l 12.104438 27.284897 l 12.230275 27.534477 l ef
n 11.729440 27.286153 m 12.228600 27.034480 l 12.104438 27.284897 l 12.230275 27.534477 l cp s
0.100000 slw
[] 0 sd
[] 0 sd
0 slc
n 22.497851 23.614884 m 22.509923 25.490264 l s
[] 0 sd
0 slj
0 slc
n 22.512336 25.865257 m 22.259123 25.366876 l 22.509923 25.490264 l 22.759113 25.363658 l ef
n 22.512336 25.865257 m 22.259123 25.366876 l 22.509923 25.490264 l 22.759113 25.363658 l cp s
0.100000 slw
[] 0 sd
[] 0 sd
0 slj
0 slc
n 29.603596 19.116815 m 30.700000 19.104722 l 30.690000 25.000000 l 29.845584 25.887352 l s
[] 0 sd
0 slj
0 slc
n 29.587073 26.159008 m 29.750651 25.624459 l 29.845584 25.887352 l 30.112859 25.969141 l ef
n 29.587073 26.159008 m 29.750651 25.624459 l 29.845584 25.887352 l 30.112859 25.969141 l cp s
0.100000 slw
[] 0 sd
[] 0 sd
0 slj
0 slc
n 29.604899 15.998887 m 31.800000 16.000000 l 31.800000 27.400000 l 31.032319 27.387590 l s
[] 0 sd
0 slj
0 slc
n 30.657368 27.381528 m 31.161344 27.139643 l 31.032319 27.387590 l 31.153262 27.639578 l ef
n 30.657368 27.381528 m 31.161344 27.139643 l 31.032319 27.387590 l 31.153262 27.639578 l cp s
/Helvetica-latin1 ff 0.740833 scf sf
1.000000 0.000000 0.000000 srgb
(1) 29.900000 2.988333 m
 gs 1 -1 sc sh gr
/Helvetica-latin1 ff 0.740833 scf sf
(2) 29.900000 6.188333 m
 gs 1 -1 sc sh gr
/Helvetica-latin1 ff 0.560000 scf sf
/Helvetica-latin1 ff 0.740833 scf sf
(3) 29.900000 9.388333 m
 gs 1 -1 sc sh gr
/Helvetica-latin1 ff 0.740833 scf sf
(4) 29.900000 12.588333 m
 gs 1 -1 sc sh gr
/Helvetica-latin1 ff 0.740833 scf sf
(5) 29.900000 15.788333 m
 gs 1 -1 sc sh gr
showpage
